A Guide to Graduate School Admissions
…
url <- "https://thebestschools.org/rankings/20-top-graduate-programs-computer-science-application-process/"

dl_tab <- url %>% 
  read_html() %>%
  html_text() %>%
  str_split("\n")

  dl_tab <- dl_tab[[1]][373:622]

  #dl_tab
  df <- dplyr::as_data_frame(dl_tab)
  
  df

## # A tibble: 250 x 1
##    value                                                                   
##    <chr>                                                                   
##  1 1. Stanford University                                                  
##  2 ""                                                                      
##  3 Stanford, California                                                    
##  4 ""                                                                      
##  5 Interested in robotics or A.I.? Stanford has received plenty of recogni
##  6 ""                                                                      
##  7 Founded in 1965, the Stanford Computer Science (CS) Department program 
##  8 ""                                                                      
##  9 Donald Knuth, a notable Computer Science alumnus and a Stanford profess
## 10 ""                                                                      
## #  with 240 more rows
…
3 Data Curation

For the rest of our project, the dataset we will be using comes from a comma-separated values (CSV) file, found on https://www.kaggle.com/mohansacharya/graduate-admissions/downloads/graduate-admissions.zip/2. This data will allow us to do analysis on the factors that people need to consider when applying to graduate school. We will delve into the details of the factors of graduate school admission that this dataset focuses later.

We can view the data by calling the read_csv command on the downloaded file.

csv <- "./Admission_Predict.csv"
df <- read_csv(csv)
df

## # A tibble: 400 x 9
##    `Serial No.` `GRE Score` `TOEFL Score` `University Rat   SOP   LOR
##           <dbl>       <dbl>         <dbl>            <dbl> <dbl> <dbl>
##  1            1         337           118                4   4.5   4.5
##  2            2         324           107                4   4     4.5
##  3            3         316           104                3   3     3.5
##  4            4         322           110                3   3.5   2.5
##  5            5         314           103                2   2     3  
##  6            6         330           115                5   4.5   3  
##  7            7         321           109                3   3     4  
##  8            8         308           101                2   3     4  
##  9            9         302           102                1   2     1.5
## 10           10         323           108                3   3.5   3  
## #  with 390 more rows, and 3 more variables: CGPA <dbl>, Research <dbl>,
## #   `Chance of Admit` <dbl>
…
4.3 Attributes

There are several types of attributes in R, as each column is made up of values of a particular class. Some of the common data types can be found at https://swcarpentry.github.io/r-novice-inflammation/13-supp-data-structures/

The attributes (or columns) in the dataset are as follows: Serial No., GRE Score, TOEFL Score, University Rating, SOP, LOR, GPA, Research, and Chance of Admit

4.3.1 Serial Number

The serial number of each entry merely identifies the row the entry is in. As a result, it does not need to be kept in the dataframe.

# remove first column containing Serial Number
tidy_data <- df[,-1]
tidy_data

## # A tibble: 400 x 8
##    `GRE Score` `TOEFL Score` `University Rat   SOP   LOR  CGPA Research
##          <dbl>         <dbl>            <dbl> <dbl> <dbl> <dbl>    <dbl>
##  1         337           118                4   4.5   4.5  9.65        1
##  2         324           107                4   4     4.5  8.87        1
##  3         316           104                3   3     3.5  8           1
##  4         322           110                3   3.5   2.5  8.67        1
##  5         314           103                2   2     3    8.21        0
##  6         330           115                5   4.5   3    9.34        1
##  7         321           109                3   3     4    8.2         1
##  8         308           101                2   3     4    7.9         0
##  9         302           102                1   2     1.5  8           0
## 10         323           108                3   3.5   3    8.6         0
## #  with 390 more rows, and 1 more variable: `Chance of Admit` <dbl>
…
4.3.7 Cumulative GPA

The cumulative undergraduate GPA of the applicant is out of 10.0

4.3.8 Research

The research attribute identifies whether or not an applicant conducted research prior to applying, with 1 for yes and 0 for no. Since this is binary, we can turn the values into booleans, with true = 1 and false = 0

#convert 1's and 0's in Research to boolean values

tidy_data$Research <- as.logical(as.integer(tidy_data$Research))
tidy_data

## # A tibble: 400 x 8
##    `GRE Score` `TOEFL Score` `University Rat   SOP   LOR  CGPA Research
##          <dbl>         <dbl>            <dbl> <dbl> <dbl> <dbl> <lgl>   
##  1         337           118                4   4.5   4.5  9.65 TRUE    
##  2         324           107                4   4     4.5  8.87 TRUE    
##  3         316           104                3   3     3.5  8    TRUE    
##  4         322           110                3   3.5   2.5  8.67 TRUE    
##  5         314           103                2   2     3    8.21 FALSE   
##  6         330           115                5   4.5   3    9.34 TRUE    
##  7         321           109                3   3     4    8.2  TRUE    
##  8         308           101                2   3     4    7.9  FALSE   
##  9         302           102                1   2     1.5  8    FALSE   
## 10         323           108                3   3.5   3    8.6  FALSE   
## #  with 390 more rows, and 1 more variable: `Chance of Admit` <dbl>
…
sd <- tidy_data %>% 
  summarize("Standard_Deviation"= sd(`GRE Score`),"Mean"=mean(`GRE Score`)) 
sd

## # A tibble: 1 x 2
##   Standard_Deviation  Mean
##                <dbl> <dbl>
## 1               11.5  317.

summary <- tidy_data %>%
           mutate(z = (`GRE Score` - sd$Mean) / sd$Standard_Deviation)
summary 

## # A tibble: 400 x 9
##    `GRE Score` `TOEFL Score` `University Rat   SOP   LOR  CGPA Research
##          <dbl>         <dbl>            <dbl> <dbl> <dbl> <dbl> <lgl>   
##  1         337           118                4   4.5   4.5  9.65 TRUE    
##  2         324           107                4   4     4.5  8.87 TRUE    
##  3         316           104                3   3     3.5  8    TRUE    
##  4         322           110                3   3.5   2.5  8.67 TRUE    
##  5         314           103                2   2     3    8.21 FALSE   
##  6         330           115                5   4.5   3    9.34 TRUE    
##  7         321           109                3   3     4    8.2  TRUE    
##  8         308           101                2   3     4    7.9  FALSE   
##  9         302           102                1   2     1.5  8    FALSE   
## 10         323           108                3   3.5   3    8.6  FALSE   
## #  with 390 more rows, and 2 more variables: `Chance of Admit` <dbl>,
## #   z <dbl>
…
